<?xml version="1.0" encoding="UTF-8"?>
<testsuite name="Cucumber" time="11.301" tests="1" skipped="0" failures="0" errors="0">
<testcase classname="Login" name="Verify login functionality (&lt;hiptest-uid&gt;) (&lt;hiptest-uid&gt;) - Example #1.1" time="11.11">
<system-out><![CDATA[
Given launch GitHub web-based application...................................passed
When click Sign In from menu................................................passed
And enter username: "thinwutthmone@yomabank.com"............................passed
And enter password: "C@rpit19971446"........................................passed
And click Sign In...........................................................passed
Then Login successful.......................................................passed
]]></system-out>
</testcase>
</testsuite>
